{
  "Litre(s)": {
    "into": {
      "Centilitre(s)": 100,
      "Millilitre(s)": 1000,
      "Cuillère(s) à soupe": 67.628,
      "Cuillère(s) à café": 202.884
    }
  },
  "Centilitre(s)": {
    "into": {
      "Litres(s)": 0.01,
      "Millilitre(s)": 10,
      "Cuillère(s) à soupe": 0.667,
      "Cuillère(s) à café": 2
    }
  },
  "Millilitre(s)": {
    "into": {
      "Litres(s)": 0.01,
      "Centilitre(s)": 0.1,
      "Cuillère(s) à soupe": 0.0667,
      "Cuillère(s) à café": 0.2
    }
  },
  "Cuillère(s) à soupe": {
    "into": {
      "Litres(s)": 0.015,
      "Centilitre(s)": 0.15,
      "Millilitre(s)": 15,
      "Cuillère(s) à café": 3
    }
  },
  "Cuillère(s) à café": {
    "into": {
      "Litres(s)": 0.005,
      "Centilitre(s)": 0.05,
      "Millilitre(s)": 5,
      "Cuillère(s) à soupe": 0.333
    }
  },
  "Gramme(s)": {
    "into": {
      "Kilo(s)": 0.001
    }
  },
  "Kilo(s)": {
    "into": {
      "Gramme(s)": 1000
    }
  }
}